<?xml version="1.0" encoding="UTF-8" standalone="no"?>
<!-- Created with Inkscape (http://www.inkscape.org/) -->

<svg
   width="141.75664mm"
   height="141.20477mm"
   viewBox="0 0 141.75664 141.20477"
   version="1.1"
   id="svg1"
   xmlns="http://www.w3.org/2000/svg"
   xmlns:svg="http://www.w3.org/2000/svg">
  <defs
     id="defs1" />
  <g
     id="layer1"
     style="display:inline"
     transform="translate(-32.464291,-15.768809)">
    <rect
       style="fill:none;stroke:#000000;stroke-width:1.1142;stroke-dasharray:none;stroke-opacity:1"
       id="rect1"
       width="140.64243"
       height="140.09056"
       x="33.021389"
       y="16.325909" />
    <circle
       style="fill:#000000;stroke:#000000;stroke-width:1.065;stroke-dasharray:none;stroke-opacity:1"
       id="path1"
       cx="48.641159"
       cy="32.561241"
       r="3" />
    <circle
       style="fill:#000000;stroke:#000000;stroke-width:1.065;stroke-dasharray:none;stroke-opacity:1"
       id="circle1"
       cx="70.695435"
       cy="32.561241"
       r="3" />
    <circle
       style="fill:#000000;stroke:#000000;stroke-width:1.065;stroke-dasharray:none;stroke-opacity:1"
       id="circle2"
       cx="92.749702"
       cy="32.561241"
       r="3" />
    <circle
       style="fill:#000000;stroke:#000000;stroke-width:1.065;stroke-dasharray:none;stroke-opacity:1"
       id="circle3"
       cx="114.80397"
       cy="32.561241"
       r="3" />
    <circle
       style="fill:#000000;stroke:#000000;stroke-width:1.065;stroke-dasharray:none;stroke-opacity:1"
       id="circle4"
       cx="136.85823"
       cy="32.561241"
       r="3" />
    <circle
       style="fill:#000000;stroke:#000000;stroke-width:1.065;stroke-dasharray:none;stroke-opacity:1"
       id="circle5"
       cx="158.91249"
       cy="32.561241"
       r="3" />
    <circle
       style="fill:#000000;stroke:#000000;stroke-width:1.065;stroke-dasharray:none;stroke-opacity:1"
       id="circle6"
       cx="48.641159"
       cy="54.498116"
       r="3" />
    <circle
       style="fill:#000000;stroke:#000000;stroke-width:1.065;stroke-dasharray:none;stroke-opacity:1"
       id="circle7"
       cx="70.695435"
       cy="54.498116"
       r="3" />
    <circle
       style="fill:#000000;stroke:#000000;stroke-width:1.065;stroke-dasharray:none;stroke-opacity:1"
       id="circle8"
       cx="92.749702"
       cy="54.498116"
       r="3" />
    <circle
       style="fill:#000000;stroke:#000000;stroke-width:1.065;stroke-dasharray:none;stroke-opacity:1"
       id="circle9"
       cx="114.80397"
       cy="54.498116"
       r="3" />
    <circle
       style="fill:#000000;stroke:#000000;stroke-width:1.065;stroke-dasharray:none;stroke-opacity:1"
       id="circle10"
       cx="136.85823"
       cy="54.498116"
       r="3" />
    <circle
       style="fill:#000000;stroke:#000000;stroke-width:1.065;stroke-dasharray:none;stroke-opacity:1"
       id="circle11"
       cx="158.91249"
       cy="54.498116"
       r="3" />
    <circle
       style="fill:#000000;stroke:#000000;stroke-width:1.065;stroke-dasharray:none;stroke-opacity:1"
       id="circle12"
       cx="48.641159"
       cy="76.43499"
       r="3" />
    <circle
       style="fill:#000000;stroke:#000000;stroke-width:1.065;stroke-dasharray:none;stroke-opacity:1"
       id="circle13"
       cx="70.695435"
       cy="76.43499"
       r="3" />
    <circle
       style="fill:#000000;stroke:#000000;stroke-width:1.065;stroke-dasharray:none;stroke-opacity:1"
       id="circle14"
       cx="92.749702"
       cy="76.43499"
       r="3" />
    <circle
       style="fill:#000000;stroke:#000000;stroke-width:1.065;stroke-dasharray:none;stroke-opacity:1"
       id="circle15"
       cx="114.80397"
       cy="76.43499"
       r="3" />
    <circle
       style="fill:#000000;stroke:#000000;stroke-width:1.065;stroke-dasharray:none;stroke-opacity:1"
       id="circle16"
       cx="136.85823"
       cy="76.43499"
       r="3" />
    <circle
       style="fill:#000000;stroke:#000000;stroke-width:1.065;stroke-dasharray:none;stroke-opacity:1"
       id="circle17"
       cx="158.91249"
       cy="76.43499"
       r="3" />
    <circle
       style="fill:#000000;stroke:#000000;stroke-width:1.065;stroke-dasharray:none;stroke-opacity:1"
       id="circle18"
       cx="48.641159"
       cy="98.371857"
       r="3" />
    <circle
       style="fill:#000000;stroke:#000000;stroke-width:1.065;stroke-dasharray:none;stroke-opacity:1"
       id="circle19"
       cx="70.695435"
       cy="98.371857"
       r="3" />
    <circle
       style="fill:#000000;stroke:#000000;stroke-width:1.065;stroke-dasharray:none;stroke-opacity:1"
       id="circle20"
       cx="92.749702"
       cy="98.371857"
       r="3" />
    <circle
       style="fill:#000000;stroke:#000000;stroke-width:1.065;stroke-dasharray:none;stroke-opacity:1"
       id="circle21"
       cx="114.80397"
       cy="98.371857"
       r="3" />
    <circle
       style="fill:#000000;stroke:#000000;stroke-width:1.065;stroke-dasharray:none;stroke-opacity:1"
       id="circle22"
       cx="136.85823"
       cy="98.371857"
       r="3" />
    <circle
       style="fill:#000000;stroke:#000000;stroke-width:1.065;stroke-dasharray:none;stroke-opacity:1"
       id="circle23"
       cx="158.91249"
       cy="98.371857"
       r="3" />
    <circle
       style="fill:#000000;stroke:#000000;stroke-width:1.065;stroke-dasharray:none;stroke-opacity:1"
       id="circle24"
       cx="48.641159"
       cy="120.30873"
       r="3" />
    <circle
       style="fill:#000000;stroke:#000000;stroke-width:1.065;stroke-dasharray:none;stroke-opacity:1"
       id="circle25"
       cx="70.695435"
       cy="120.30873"
       r="3" />
    <circle
       style="fill:#000000;stroke:#000000;stroke-width:1.065;stroke-dasharray:none;stroke-opacity:1"
       id="circle26"
       cx="92.749702"
       cy="120.30873"
       r="3" />
    <circle
       style="fill:#000000;stroke:#000000;stroke-width:1.065;stroke-dasharray:none;stroke-opacity:1"
       id="circle27"
       cx="114.80397"
       cy="120.30873"
       r="3" />
    <circle
       style="fill:#000000;stroke:#000000;stroke-width:1.065;stroke-dasharray:none;stroke-opacity:1"
       id="circle28"
       cx="136.85823"
       cy="120.30873"
       r="3" />
    <circle
       style="fill:#000000;stroke:#000000;stroke-width:1.065;stroke-dasharray:none;stroke-opacity:1"
       id="circle29"
       cx="158.91249"
       cy="120.30873"
       r="3" />
    <path
       style="fill:#000000;stroke:#000000;stroke-width:1.35389;stroke-dasharray:none;stroke-opacity:1"
       d="m 69.36435,34.213962 c -1.172702,-0.922446 -1.089131,-2.464152 0.184896,-3.410966 2.264661,-1.683022 4.653455,1.679326 2.433622,3.425449 -1.112089,0.874768 -1.490679,0.872676 -2.618518,-0.01447 z"
       id="path31" />
    <path
       style="fill:#000000;stroke:#000000;stroke-width:1.35389;stroke-dasharray:none;stroke-opacity:1"
       d="m 91.349748,34.305272 c -1.542468,-1.249015 -0.558503,-4.088656 1.416762,-4.088656 0.863918,0 2.30192,1.470835 2.30192,2.354474 0,0.88364 -1.438002,2.354474 -2.30192,2.354474 -0.357904,0 -0.995447,-0.279132 -1.416762,-0.620292 z"
       id="path32" />
    <path
       style="fill:#000000;stroke:#000000;stroke-width:1.35389;stroke-dasharray:none;stroke-opacity:1"
       d="m 113.42664,34.213962 c -1.18911,-0.93535 -1.0893,-2.463967 0.22464,-3.440639 0.74082,-0.550669 1.10684,-0.622845 1.84395,-0.363617 1.73853,0.611407 1.90648,3.36763 0.25117,4.121841 -1.15215,0.524954 -1.26898,0.50896 -2.31976,-0.317585 z"
       id="path33" />
    <path
       style="fill:#000000;stroke:#000000;stroke-width:1.35389;stroke-dasharray:none;stroke-opacity:1"
       d="m 136.01488,34.692826 c -0.32625,-0.08509 -0.82206,-0.597283 -1.10179,-1.138219 -0.455,-0.879887 -0.45388,-1.089324 0.0107,-1.987703 0.6883,-1.331024 1.96812,-1.645462 3.14307,-0.772216 1.22578,0.911024 1.329,2.214557 0.25999,3.283559 -0.83611,0.83611 -1.14632,0.918575 -2.31196,0.614579 z"
       id="path34" />
    <path
       style="fill:#000000;stroke:#000000;stroke-width:1.35389;stroke-dasharray:none;stroke-opacity:1"
       d="m 157.4789,34.132185 c -0.47179,-0.471797 -0.85781,-1.17429 -0.85781,-1.561095 0,-0.883639 1.43801,-2.354474 2.30192,-2.354474 1.11643,0 2.18279,1.132456 2.18279,2.318075 0,2.075715 -2.18589,3.038505 -3.6269,1.597494 z"
       id="path35" />
    <path
       style="fill:#000000;stroke:#000000;stroke-width:1.35389;stroke-dasharray:none;stroke-opacity:1"
       d="m 157.35243,56.010056 c -1.17527,-1.251013 -0.78532,-2.998128 0.80404,-3.602402 1.71217,-0.650968 3.49647,1.133324 2.8455,2.845504 -0.61438,1.615932 -2.47918,2.002686 -3.64954,0.756898 z"
       id="path36" />
    <path
       style="fill:#000000;stroke:#000000;stroke-width:1.35389;stroke-dasharray:none;stroke-opacity:1"
       d="m 157.3069,77.915368 c -1.35642,-1.455954 -0.37049,-3.636465 1.64425,-3.636465 0.98624,0 2.37889,1.279909 2.37889,2.186297 0,0.227595 -0.3137,0.81262 -0.69712,1.300054 -0.87716,1.115131 -2.36443,1.182256 -3.32602,0.150114 z"
       id="path37" />
    <path
       style="fill:#000000;stroke:#000000;stroke-width:1.35389;stroke-dasharray:none;stroke-opacity:1"
       d="m 135.66445,56.4148 c -2.23635,-1.300988 -0.48902,-4.927195 1.9309,-4.007146 1.61593,0.614378 2.00268,2.479183 0.75689,3.649538 -0.84486,0.793713 -1.73464,0.912095 -2.68779,0.357608 z"
       id="path38" />
    <path
       style="fill:#000000;stroke:#000000;stroke-width:1.35389;stroke-dasharray:none;stroke-opacity:1"
       d="m 113.29014,56.010056 c -0.95812,-1.019878 -0.92579,-2.084824 0.0943,-3.104877 1.00728,-1.007279 1.51252,-1.031674 2.66075,-0.128476 1.08431,0.85291 1.1814,2.371259 0.21354,3.339121 -0.89291,0.892913 -2.06973,0.850984 -2.96855,-0.105768 z"
       id="path39" />
    <path
       style="fill:#000000;stroke:#000000;stroke-width:1.35389;stroke-dasharray:none;stroke-opacity:1"
       d="m 91.624934,56.427545 c -1.544715,-0.899964 -1.489134,-3.032019 0.10047,-3.854037 1.123407,-0.580935 2.430589,-0.224933 2.986222,0.813276 0.549455,1.026665 0.431279,1.676085 -0.468789,2.576153 -0.878025,0.878022 -1.667742,1.018177 -2.617903,0.464608 z"
       id="path40" />
    <path
       style="fill:#000000;stroke:#000000;stroke-width:1.35389;stroke-dasharray:none;stroke-opacity:1"
       d="m 69.169225,56.115824 c -0.967864,-0.967862 -0.870765,-2.486211 0.213537,-3.339121 0.487434,-0.383416 1.072457,-0.697119 1.300052,-0.697119 0.227597,0 0.81262,0.313703 1.300054,0.697119 1.634498,1.285695 0.75108,4.011826 -1.300054,4.011826 -0.462487,0 -1.143601,-0.302717 -1.513589,-0.672705 z"
       id="path41" />
    <path
       style="fill:#000000;stroke:#000000;stroke-width:1.35389;stroke-dasharray:none;stroke-opacity:1"
       d="m 47.122793,55.962937 c -0.984869,-0.984869 -1.046557,-1.854184 -0.205304,-2.893089 0.715833,-0.884018 2.503517,-1.043684 3.241654,-0.289529 0.952339,0.973006 0.973738,2.230284 0.05362,3.150402 -1.078666,1.078669 -2.033563,1.088623 -3.08997,0.03222 z"
       id="path42" />
    <path
       style="fill:#000000;stroke:#000000;stroke-width:1.35389;stroke-dasharray:none;stroke-opacity:1"
       d="m 47.008797,77.783664 c -0.826543,-1.050782 -0.842537,-1.167609 -0.317582,-2.319761 0.756356,-1.660022 3.270927,-1.548 3.985678,0.177557 0.377759,0.911994 0.348935,1.14196 -0.242943,1.938311 -0.961083,1.293098 -2.496487,1.384498 -3.425153,0.203893 z"
       id="path43" />
    <path
       style="fill:#000000;stroke:#000000;stroke-width:1.35389;stroke-dasharray:none;stroke-opacity:1"
       d="m 69.169225,77.978791 c -0.840433,-0.840433 -0.869175,-2.408766 -0.0576,-3.143226 0.816427,-0.738857 2.507223,-0.707985 3.200831,0.05844 1.224981,1.353593 0.182404,3.757491 -1.629637,3.757491 -0.462487,0 -1.143601,-0.302718 -1.513589,-0.672706 z"
       id="path44" />
    <path
       style="fill:#000000;stroke:#000000;stroke-width:1.35389;stroke-dasharray:none;stroke-opacity:1"
       d="m 91.056603,77.765254 c -0.872146,-1.108758 -0.872146,-1.49135 0,-2.600108 0.852914,-1.0843 2.37126,-1.181399 3.339121,-0.213535 0.892913,0.892911 0.850985,2.069727 -0.105767,2.968549 -1.067596,1.002956 -2.371725,0.940477 -3.233354,-0.154906 z"
       id="path45" />
    <path
       style="fill:#000000;stroke:#000000;stroke-width:1.35389;stroke-dasharray:none;stroke-opacity:1"
       d="m 113.23151,77.978791 c -1.37564,-1.375645 -0.35192,-3.699888 1.62964,-3.699888 1.21888,0 2.07025,0.936718 2.07025,2.277798 0,1.876179 -2.34462,2.777358 -3.69989,1.42209 z"
       id="path46" />
    <path
       style="fill:#000000;stroke:#000000;stroke-width:1.35389;stroke-dasharray:none;stroke-opacity:1"
       d="m 135.27274,77.989936 c -1.2748,-1.408639 -0.30965,-3.711033 1.55564,-3.711033 1.18173,0 2.30234,1.064125 2.30234,2.186297 0,1.877499 -2.60648,2.907623 -3.85798,1.524736 z"
       id="path47" />
    <path
       style="fill:#000000;stroke:#000000;stroke-width:1.35389;stroke-dasharray:none;stroke-opacity:1"
       d="m 157.2938,99.841756 c -0.89291,-0.89291 -0.85099,-2.069727 0.10577,-2.968548 1.06759,-1.002956 2.37172,-0.940477 3.23335,0.154906 0.38342,0.487434 0.69712,1.072459 0.69712,1.300054 0,0.227594 -0.3137,0.81262 -0.69712,1.300054 -0.85291,1.084298 -2.37126,1.181398 -3.33912,0.213534 z"
       id="path48" />
    <path
       style="fill:#000000;stroke:#000000;stroke-width:1.35389;stroke-dasharray:none;stroke-opacity:1"
       d="m 135.27274,99.852903 c -1.27008,-1.403426 -0.3109,-3.711032 1.54253,-3.711032 1.12718,0 2.31545,1.154538 2.31545,2.24972 0,1.821209 -2.63055,2.817599 -3.85798,1.461312 z"
       id="path49" />
    <path
       style="fill:#000000;stroke:#000000;stroke-width:1.35389;stroke-dasharray:none;stroke-opacity:1"
       d="m 113.08241,99.766916 c -0.71419,-1.019643 -0.65731,-2.145932 0.1491,-2.95234 1.38053,-1.380532 3.69989,-0.452426 3.69989,1.480535 0,1.366636 -0.87517,2.219349 -2.2778,2.219349 -0.70125,0 -1.2207,-0.24714 -1.57119,-0.747544 z"
       id="path50" />
    <path
       style="fill:#000000;stroke:#000000;stroke-width:1.35389;stroke-dasharray:none;stroke-opacity:1"
       d="m 91.056603,99.628222 c -0.872146,-1.108758 -0.872146,-1.491351 0,-2.600108 0.936715,-1.190837 2.377996,-1.190837 3.314708,0 0.876586,1.114398 0.883873,1.954183 0.02442,2.813642 -0.967862,0.967864 -2.486207,0.870764 -3.339121,-0.213534 z"
       id="path51" />
    <path
       style="fill:#000000;stroke:#000000;stroke-width:1.35389;stroke-dasharray:none;stroke-opacity:1"
       d="m 69.053179,99.899361 c -1.224984,-1.353592 -0.182404,-3.75749 1.629635,-3.75749 1.841815,0 2.913015,2.601603 1.571193,3.815932 -0.816424,0.738857 -2.507223,0.707987 -3.200828,-0.05844 z"
       id="path52" />
    <path
       style="fill:#000000;stroke:#000000;stroke-width:1.35389;stroke-dasharray:none;stroke-opacity:1"
       d="m 46.983008,99.778333 c -0.872707,-0.936739 -0.866206,-1.634641 0.0258,-2.768629 0.922448,-1.172702 2.464152,-1.089133 3.410968,0.184893 1.623886,2.185091 -1.570675,4.586743 -3.436757,2.583736 z"
       id="path53" />
    <path
       style="fill:#000000;stroke:#000000;stroke-width:1.35389;stroke-dasharray:none;stroke-opacity:1"
       d="m 47.748688,122.37195 c -0.792654,-0.31599 -1.451491,-1.30277 -1.451491,-2.17399 0,-0.77422 1.523299,-2.19312 2.354475,-2.19312 0.883639,0 2.354471,1.438 2.354471,2.30192 0,1.45739 -1.846117,2.62781 -3.257455,2.06519 z"
       id="path54" />
    <path
       style="fill:#000000;stroke:#000000;stroke-width:1.35389;stroke-dasharray:none;stroke-opacity:1"
       d="m 69.382762,122.01667 c -1.115134,-0.87717 -1.182259,-2.36444 -0.150114,-3.32602 1.455952,-1.35643 3.636463,-0.3705 3.636463,1.64425 0,0.98623 -1.279906,2.37888 -2.186297,2.37888 -0.227595,0 -0.812618,-0.3137 -1.300052,-0.69711 z"
       id="path55" />
    <path
       style="fill:#000000;stroke:#000000;stroke-width:1.35389;stroke-dasharray:none;stroke-opacity:1"
       d="m 91.784094,122.362 c -0.684028,-0.27198 -1.42461,-1.50727 -1.42461,-2.37623 0,-0.60142 1.639644,-1.98093 2.354475,-1.98093 0.883639,0 2.354471,1.438 2.354471,2.30192 0,1.47106 -1.846911,2.62681 -3.284336,2.05524 z"
       id="path56" />
    <path
       style="fill:#000000;stroke:#000000;stroke-width:1.35389;stroke-dasharray:none;stroke-opacity:1"
       d="m 113.44505,122.01667 c -1.1244,-0.88446 -1.17032,-2.28228 -0.10777,-3.28049 0.97107,-0.91228 2.04619,-0.93386 2.92141,-0.0586 0.66912,0.66912 0.88694,2.18638 0.41529,2.89274 -0.28211,0.4225 -1.5618,1.1435 -2.02958,1.1435 -0.17221,0 -0.71192,-0.3137 -1.19935,-0.69711 z"
       id="path57" />
    <path
       style="fill:#000000;stroke:#000000;stroke-width:1.35389;stroke-dasharray:none;stroke-opacity:1"
       d="m 135.88965,122.32039 c -2.1844,-1.0577 -1.32213,-4.31555 1.1422,-4.31555 0.85026,0 2.09887,1.37264 2.09887,2.30735 0,0.82424 -1.39551,2.41495 -2.08692,2.37883 -0.23965,-0.0125 -0.75902,-0.1793 -1.15415,-0.37063 z"
       id="path58" />
    <path
       style="fill:#000000;stroke:#000000;stroke-width:1.35389;stroke-dasharray:none;stroke-opacity:1"
       d="m 157.97209,122.28124 c -1.0327,-0.52251 -1.64146,-2.05671 -1.13668,-2.86465 0.67927,-1.08723 1.98058,-1.59244 2.95648,-1.14779 1.77961,0.81085 1.76259,3.25553 -0.0284,4.07154 -0.98066,0.44682 -0.77832,0.4535 -1.79144,-0.0591 z"
       id="path59" />
    <rect
       style="fill:none;stroke:#0000ff;stroke-width:1.18199;stroke-dasharray:none;stroke-opacity:1"
       id="rect59"
       width="19.914431"
       height="130.11745"
       x="148.75854"
       y="22.867455"
       ry="12.409424" />
    <circle
       style="fill:none;stroke:#0000ff;stroke-width:1.065;stroke-dasharray:none;stroke-opacity:1"
       id="path60"
       cx="158.71576"
       cy="32.635799"
       r="6.5" />
    <circle
       style="fill:#000000;stroke:#000000;stroke-width:1.065;stroke-dasharray:none;stroke-opacity:1"
       id="circle61"
       cx="48.641159"
       cy="142.00436"
       r="3" />
    <circle
       style="fill:#000000;stroke:#000000;stroke-width:1.065;stroke-dasharray:none;stroke-opacity:1"
       id="circle62"
       cx="70.695435"
       cy="142.00436"
       r="3" />
    <circle
       style="fill:#000000;stroke:#000000;stroke-width:1.065;stroke-dasharray:none;stroke-opacity:1"
       id="circle63"
       cx="92.749702"
       cy="142.00436"
       r="3" />
    <circle
       style="fill:#000000;stroke:#000000;stroke-width:1.065;stroke-dasharray:none;stroke-opacity:1"
       id="circle64"
       cx="114.80397"
       cy="142.00436"
       r="3" />
    <circle
       style="fill:#000000;stroke:#000000;stroke-width:1.065;stroke-dasharray:none;stroke-opacity:1"
       id="circle65"
       cx="136.85823"
       cy="142.00436"
       r="3" />
    <circle
       style="fill:#000000;stroke:#000000;stroke-width:1.065;stroke-dasharray:none;stroke-opacity:1"
       id="circle66"
       cx="158.91249"
       cy="142.00436"
       r="3" />
    <path
       style="fill:#000000;stroke:#000000;stroke-width:1.35389;stroke-dasharray:none;stroke-opacity:1"
       d="m 47.748688,144.06792 c -0.792654,-0.31599 -1.451491,-1.30277 -1.451491,-2.17399 0,-0.77422 1.523299,-2.19312 2.354475,-2.19312 0.883639,0 2.354471,1.438 2.354471,2.30192 0,1.45739 -1.846117,2.62781 -3.257455,2.06519 z"
       id="path66" />
    <path
       style="fill:#000000;stroke:#000000;stroke-width:1.35389;stroke-dasharray:none;stroke-opacity:1"
       d="m 69.382762,143.71264 c -1.115134,-0.87717 -1.182259,-2.36444 -0.150114,-3.32602 1.455952,-1.35643 3.636463,-0.3705 3.636463,1.64425 0,0.98623 -1.279906,2.37888 -2.186297,2.37888 -0.227595,0 -0.812618,-0.3137 -1.300052,-0.69711 z"
       id="path67" />
    <path
       style="fill:#000000;stroke:#000000;stroke-width:1.35389;stroke-dasharray:none;stroke-opacity:1"
       d="m 91.784094,144.05797 c -0.684028,-0.27198 -1.42461,-1.50727 -1.42461,-2.37623 0,-0.60142 1.639644,-1.98093 2.354475,-1.98093 0.883639,0 2.354471,1.438 2.354471,2.30192 0,1.47106 -1.846911,2.62681 -3.284336,2.05524 z"
       id="path68" />
    <path
       style="fill:#000000;stroke:#000000;stroke-width:1.35389;stroke-dasharray:none;stroke-opacity:1"
       d="m 113.44505,143.71264 c -1.1244,-0.88446 -1.17032,-2.28228 -0.10777,-3.28049 0.97107,-0.91228 2.04619,-0.93386 2.92141,-0.0586 0.66912,0.66912 0.88694,2.18638 0.41529,2.89274 -0.28211,0.4225 -1.5618,1.1435 -2.02958,1.1435 -0.17221,0 -0.71192,-0.3137 -1.19935,-0.69711 z"
       id="path69" />
    <path
       style="fill:#000000;stroke:#000000;stroke-width:1.35389;stroke-dasharray:none;stroke-opacity:1"
       d="m 135.88965,144.01636 c -2.1844,-1.0577 -1.32213,-4.31555 1.1422,-4.31555 0.85026,0 2.09887,1.37264 2.09887,2.30735 0,0.82424 -1.39551,2.41495 -2.08692,2.37883 -0.23965,-0.0125 -0.75902,-0.1793 -1.15415,-0.37063 z"
       id="path70" />
    <path
       style="fill:#000000;stroke:#000000;stroke-width:1.35389;stroke-dasharray:none;stroke-opacity:1"
       d="m 157.97209,143.97721 c -1.0327,-0.52251 -1.64146,-2.05671 -1.13668,-2.86465 0.67927,-1.08723 1.98058,-1.59244 2.95648,-1.14779 1.77961,0.81085 1.76259,3.25553 -0.0284,4.07154 -0.98066,0.44682 -0.77832,0.4535 -1.79144,-0.0591 z"
       id="path71" />
    <circle
       style="fill:none;stroke:#0000ff;stroke-width:1.065;stroke-dasharray:none;stroke-opacity:1"
       id="circle71"
       cx="158.71576"
       cy="142.05266"
       r="6.5" />
  </g>
</svg>
